^C:\USERS\ZOLIC_GECV9XE\ONEDRIVE\PULPIT\LISTA PIERWSZA\ZAD 3\ZAD 3\DEBUG\PCH.OBJ|C:\USERS\ZOLIC_GECV9XE\ONEDRIVE\PULPIT\LISTA PIERWSZA\ZAD 3\ZAD 3\DEBUG\ZAD 3.OBJ
C:\USERS\ZOLIC_GECV9XE\ONEDRIVE\PULPIT\LISTA PIERWSZA\ZAD 3\DEBUG\ZAD 3.EXE
C:\USERS\ZOLIC_GECV9XE\ONEDRIVE\PULPIT\LISTA PIERWSZA\ZAD 3\DEBUG\ZAD 3.ILK
C:\USERS\ZOLIC_GECV9XE\ONEDRIVE\PULPIT\LISTA PIERWSZA\ZAD 3\DEBUG\ZAD 3.PDB
